examples/spade.vcd
$date
	Fri Feb  7 16:00:22 2025
$end
$version
	Icarus Verilog
$end
$timescale
	1ps
$end
$scope module proj::pipeline_ready_valid::ready_valid_pipeline $end
$var wire 1 ! \#s1_enable $end
$var wire 1 " \#s2_enable $end
$var wire 1 # \#s3_enable $end
$var wire 1 $ _e_1565 $end
$var wire 1 % _e_1567 $end
$var wire 1 & _e_1570 $end
$var wire 1 ' _e_1572 $end
$var wire 1 ( _e_1575 $end
$var wire 1 ) _e_1577 $end
$var wire 1 * _e_1581 $end
$var wire 1 + clk $end
$var wire 1 , clk_i $end
$var wire 4 - enables [3:0] $end
$var wire 4 . enables_i [3:0] $end
$var wire 18 / output__ [17:0] $end
$var wire 8 0 val [7:0] $end
$var wire 8 1 val_i [7:0] $end
$var wire 2 2 s4 [1:0] $end
$var wire 2 3 s3 [1:0] $end
$var wire 2 4 s2 [1:0] $end
$var wire 2 5 s1 [1:0] $end
$var wire 2 6 s0 [1:0] $end
$var wire 1 7 _e_1580 $end
$var wire 1 8 _e_1579 $end
$var wire 1 9 _e_1578 $end
$var wire 1 : _e_1576 $end
$var wire 1 ; _e_1574 $end
$var wire 1 < _e_1573 $end
$var wire 1 = _e_1571 $end
$var wire 1 > _e_1569 $end
$var wire 1 ? _e_1568 $end
$var wire 1 @ _e_1566 $end
$var wire 1 A _e_1564 $end
$var wire 1 B _e_1562 $end
$var wire 8 C _e_1561 [7:0] $end
$var wire 8 D _e_1560 [7:0] $end
$var wire 8 E _e_1559 [7:0] $end
$var wire 8 F _e_1558 [7:0] $end
$var wire 1 G _e_1148 $end
$var wire 1 H _e_1145 $end
$var wire 1 I _e_1142 $end
$var wire 1 J _e_1139 $end
$var wire 1 K _e_1136 $end
$var wire 1 L _e_1133 $end
$var wire 1 M _e_1130 $end
$var wire 1 N _e_1127 $end
$var wire 1 O _e_1124 $end
$var wire 1 P _e_1121 $end
$var wire 18 Q _e_1120 [17:0] $end
$var wire 1 R _e_1102 $end
$var wire 1 S _e_1093 $end
$var wire 1 T _e_1084 $end
$var wire 1 U \#s4_enable $end
$var parameter 1 V _e_1081 $end
$var parameter 2 W _e_1087 $end
$var parameter 2 X _e_1096 $end
$var parameter 2 Y _e_1105 $end
$var parameter 2 Z _e_1114 $end
$var parameter 1 [ _e_1118 $end
$var parameter 1 \ _e_1563 $end
$var reg 1 ] \#s1_valid $end
$var reg 1 ^ \#s2_valid $end
$var reg 1 _ \#s3_valid $end
$var reg 1 ` \#s4_valid $end
$var reg 8 a s1_val [7:0] $end
$var reg 8 b s2_val [7:0] $end
$var reg 8 c s3_val [7:0] $end
$var reg 8 d s4_val [7:0] $end
$upscope $end
$enddefinitions $end
$comment Show the parameter values. $end
$dumpall
1\
1[
b11 Z
b10 Y
b1 X
b0 W
1V
$end
#0
$dumpvars
bx d
bx c
bx b
bx a
x`
x_
x^
x]
1U
1T
1S
1R
b1xxxx11111xxxxxxxx Q
1P
xO
xN
xM
xL
1K
1J
1I
1H
1G
bz F
bx E
bx D
bx C
1B
0A
1@
x?
0>
1=
x<
0;
1:
x9
08
17
b11 6
b1x 5
b1x 4
b1x 3
b1x 2
bz 1
bz 0
b1xxxx11111xxxxxxxx /
b1111 .
b1111 -
1,
1+
x*
x)
0(
x'
0&
1%
0$
1#
1"
1!
$end
#500
b0 F
b0 0
b0 1
0+
0,
#1000
b11xxx11111xxxxxxxx /
b11xxx11111xxxxxxxx Q
1'
1O
1?
b11 5
b0 E
1]
b0 a
1+
1,
#1500
b1 F
b1 0
b1 1
0+
0,
#2000
b111xx11111xxxxxxxx /
b111xx11111xxxxxxxx Q
1)
1N
b1 E
b0 D
1<
b11 4
b1 a
b0 b
1^
1+
1,
#2500
b10 F
b10 0
b10 1
0+
0,
#3000
b1111x11111xxxxxxxx /
b1111x11111xxxxxxxx Q
1*
1M
19
b11 3
b0 C
b1 D
b10 E
1_
b0 c
b1 b
b10 a
1+
1,
#3500
b11 F
b11 0
b11 1
0+
0,
#4000
b111111111100000000 /
b111111111100000000 Q
1L
b11 E
b10 D
b1 C
b11 2
b11 a
b10 b
b1 c
b0 d
1`
1+
1,
#4500
b100 F
b100 0
b100 1
0+
0,
#5000
b111111111100000001 /
b111111111100000001 Q
b10 C
b11 D
b100 E
b1 d
b10 c
b11 b
b100 a
1+
1,
#5500
b101 F
b101 0
b101 1
0+
0,
#6000
b111111111100000010 /
b111111111100000010 Q
b101 E
b100 D
b11 C
b101 a
b100 b
b11 c
b10 d
1+
1,
#6500
0+
0,
#7000
b111111111100000011 /
b111111111100000011 Q
b100 C
b101 D
b11 d
b100 c
b101 b
1+
1,
#7500
0+
0,
#8000
b111111111100000100 /
b111111111100000100 Q
b101 C
b101 c
b100 d
1+
1,
#8500
0+
0,
#9000
b111111111100000101 /
b111111111100000101 Q
b101 d
1+
1,
